%YAML 1.1
%TAG !u! tag:unity3d.com,2011:
--- !u!1 &1460042810909782556
GameObject:
  m_ObjectHideFlags: 0
  m_CorrespondingSourceObject: {fileID: 0}
  m_PrefabInstance: {fileID: 0}
  m_PrefabAsset: {fileID: 0}
  serializedVersion: 6
  m_Component:
  - component: {fileID: 1460042810909782559}
  - component: {fileID: 1460042810909782558}
  - component: {fileID: 1460042810909782557}
  m_Layer: 0
  m_Name: Motherboard Stage
  m_TagString: Untagged
  m_Icon: {fileID: 0}
  m_NavMeshLayer: 0
  m_StaticEditorFlags: 0
  m_IsActive: 1
--- !u!4 &1460042810909782559
Transform:
  m_ObjectHideFlags: 0
  m_CorrespondingSourceObject: {fileID: 0}
  m_PrefabInstance: {fileID: 0}
  m_PrefabAsset: {fileID: 0}
  m_GameObject: {fileID: 1460042810909782556}
  m_LocalRotation: {x: 0, y: 0, z: 0, w: 1}
  m_LocalPosition: {x: 0, y: 0, z: 0}
  m_LocalScale: {x: 1, y: 1, z: 1}
  m_Children:
  - {fileID: 5852896097061904310}
  m_Father: {fileID: 0}
  m_RootOrder: 0
  m_LocalEulerAnglesHint: {x: 0, y: 0, z: 0}
--- !u!114 &1460042810909782558
MonoBehaviour:
  m_ObjectHideFlags: 0
  m_CorrespondingSourceObject: {fileID: 0}
  m_PrefabInstance: {fileID: 0}
  m_PrefabAsset: {fileID: 0}
  m_GameObject: {fileID: 1460042810909782556}
  m_Enabled: 1
  m_EditorHideFlags: 0
  m_Script: {fileID: 697333272, guid: 4bc5fd733b147194692297d23f623541, type: 3}
  m_Name: 
  m_EditorClassIdentifier: 
  mTrackableName: 
  mInitializedInEditor: 0
  mSelectedStageType: 1
  mPlaneReference: {fileID: 0}
  mMidAirReference: {fileID: 0}
--- !u!114 &1460042810909782557
MonoBehaviour:
  m_ObjectHideFlags: 0
  m_CorrespondingSourceObject: {fileID: 0}
  m_PrefabInstance: {fileID: 0}
  m_PrefabAsset: {fileID: 0}
  m_GameObject: {fileID: 1460042810909782556}
  m_Enabled: 1
  m_EditorHideFlags: 0
  m_Script: {fileID: 11500000, guid: 5a917f0af64a6423093132dab321c15f, type: 3}
  m_Name: 
  m_EditorClassIdentifier: 
  StatusFilter: 2
  OnTargetFound:
    m_PersistentCalls:
      m_Calls: []
  OnTargetLost:
    m_PersistentCalls:
      m_Calls: []
--- !u!1001 &1460042809166574764
PrefabInstance:
  m_ObjectHideFlags: 0
  serializedVersion: 2
  m_Modification:
    m_TransformParent: {fileID: 1460042810909782559}
    m_Modifications:
    - target: {fileID: -4216859302048453862, guid: 70902f56139ab7e4a8216ad4c8e94ef1,
        type: 3}
      propertyPath: m_LocalPosition.x
      value: 0.2
      objectReference: {fileID: 0}
    - target: {fileID: -4216859302048453862, guid: 70902f56139ab7e4a8216ad4c8e94ef1,
        type: 3}
      propertyPath: m_LocalPosition.y
      value: -0.067
      objectReference: {fileID: 0}
    - target: {fileID: -4216859302048453862, guid: 70902f56139ab7e4a8216ad4c8e94ef1,
        type: 3}
      propertyPath: m_LocalPosition.z
      value: 0.381
      objectReference: {fileID: 0}
    - target: {fileID: -4216859302048453862, guid: 70902f56139ab7e4a8216ad4c8e94ef1,
        type: 3}
      propertyPath: m_LocalRotation.x
      value: 0
      objectReference: {fileID: 0}
    - target: {fileID: -4216859302048453862, guid: 70902f56139ab7e4a8216ad4c8e94ef1,
        type: 3}
      propertyPath: m_LocalRotation.y
      value: 0
      objectReference: {fileID: 0}
    - target: {fileID: -4216859302048453862, guid: 70902f56139ab7e4a8216ad4c8e94ef1,
        type: 3}
      propertyPath: m_LocalRotation.z
      value: 0
      objectReference: {fileID: 0}
    - target: {fileID: -4216859302048453862, guid: 70902f56139ab7e4a8216ad4c8e94ef1,
        type: 3}
      propertyPath: m_LocalRotation.w
      value: 1
      objectReference: {fileID: 0}
    - target: {fileID: -4216859302048453862, guid: 70902f56139ab7e4a8216ad4c8e94ef1,
        type: 3}
      propertyPath: m_RootOrder
      value: 0
      objectReference: {fileID: 0}
    - target: {fileID: -4216859302048453862, guid: 70902f56139ab7e4a8216ad4c8e94ef1,
        type: 3}
      propertyPath: m_LocalEulerAnglesHint.x
      value: 0
      objectReference: {fileID: 0}
    - target: {fileID: -4216859302048453862, guid: 70902f56139ab7e4a8216ad4c8e94ef1,
        type: 3}
      propertyPath: m_LocalEulerAnglesHint.y
      value: 0
      objectReference: {fileID: 0}
    - target: {fileID: -4216859302048453862, guid: 70902f56139ab7e4a8216ad4c8e94ef1,
        type: 3}
      propertyPath: m_LocalEulerAnglesHint.z
      value: 0
      objectReference: {fileID: 0}
    - target: {fileID: -4216859302048453862, guid: 70902f56139ab7e4a8216ad4c8e94ef1,
        type: 3}
      propertyPath: m_LocalScale.x
      value: 0.002
      objectReference: {fileID: 0}
    - target: {fileID: -4216859302048453862, guid: 70902f56139ab7e4a8216ad4c8e94ef1,
        type: 3}
      propertyPath: m_LocalScale.y
      value: 0.002
      objectReference: {fileID: 0}
    - target: {fileID: -4216859302048453862, guid: 70902f56139ab7e4a8216ad4c8e94ef1,
        type: 3}
      propertyPath: m_LocalScale.z
      value: 0.002
      objectReference: {fileID: 0}
    - target: {fileID: -927199367670048503, guid: 70902f56139ab7e4a8216ad4c8e94ef1,
        type: 3}
      propertyPath: m_Name
      value: Motherboard.3ds
      objectReference: {fileID: 0}
    m_RemovedComponents: []
  m_SourcePrefab: {fileID: 100100000, guid: 70902f56139ab7e4a8216ad4c8e94ef1, type: 3}
--- !u!4 &5852896097061904310 stripped
Transform:
  m_CorrespondingSourceObject: {fileID: -4216859302048453862, guid: 70902f56139ab7e4a8216ad4c8e94ef1,
    type: 3}
  m_PrefabInstance: {fileID: 1460042809166574764}
  m_PrefabAsset: {fileID: 0}
